{
    "version": 1,
    "schemes": {
        "www.example.com": "noinvert-dim1",
        "bitbucket.org": "noinvert-dim1",
        "truequity.atlassian.net": "delumine-smart",
        "mrobbinsassoc.atlassian.net": "delumine-smart",
        "habitica.com": "delumine-noimg",
        "www.mindmeister.com": "delumine-smart",
        "mrobbinsassoc.bitrix24.com": "delumine-smart",
        "www.meistertask.com": "delumine-smart",
        "mrobbinsassoc.teamwork.com": "delumine-smart",
        "mrobbinsassoc.workspace.com": "delumine-smart",
        "www.draw.io": "delumine-smart",
        "mrobbinsassoc.aha.io": "delumine-all",
        "drive.google.com": "delumine-all",
        "mrobbinsassoc.mightybell.com": "delumine-smart",
        "mrobbinsassoc.latticespace.com": "delumine-smart",
        "www.pivotaltracker.com": "normal",
        "sketchboard.me": "noinvert-dim2",
        "app.conceptboard.com": "delumine-smart",
        "realtimeboard.com": "delumine-smart",
        "my.iqtell.com": "delumine-smart",
        "www.gqueues.com": "delumine-smart",
        "webbrain.com": "normal",
        "www.notion.so": "delumine-smart",
        "airtable.com": "delumine-smart",
        "www.moh.io": "delumine-smart",
        "coggle.it": "delumine-smart",
        "www.mindomo.com": "delumine-smart",
        "www.spiderscribe.net": "delumine-all",
        "outlines.toodledo.com": "delumine-smart",
        "lists.toodledo.com": "delumine-smart",
        "app.yodiz.com": "delumine-smart",
        "favro.com": "delumine-smart",
        "apps.nutcache.com": "delumine-smart",
        "service.projectplace.com": "delumine-smart",
        "mrobbinsassoc.wimi.pro": "delumine-smart",
        "agilespecs.com": "delumine-smart",
        "demo.spiraservice.net": "delumine-smart",
        "www.fox-plan.net": "delumine-smart",
        "app.casual.pm": "delumine-smart",
        "secure.methodologee.com": "delumine-smart",
        "mrobbinsassoc.allthings.io": "delumine-smart",
        "mrobbinsassoc.speqit.com": "delumine-smart",
        "alm.orcanos.com": "delumine-smart",
        "trial.proworkflow.net": "delumine-smart",
        "mrobbinsassoc.quip.com": "delumine-smart"
    },
    "modifiers": {
        "www.example.com": "",
        "chrome.google.com": {},
        "truequity.atlassian.net": {
            "low-contrast": true
        },
        "mrobbinsassoc.atlassian.net": {},
        "habitica.com": {},
        "www.mindmeister.com": {},
        "www.pivotaltracker.com": {},
        "realtimeboard.com": {},
        "webbrain.com": {},
        "favro.com": {},
        "mrobbinsassoc.allthings.io": {}
    }
